{
    "prepare_queue": {
        "installed": [],
        "uninstalled": []
    },
    "config_munge": {
        "files": {
            "config.xml": {
                "parents": {
                    "/*": [
                        {
                            "xml": "<feature name=\"UniqueDeviceID\"><param name=\"ios-package\" value=\"CDVUniqueDeviceID\" /><param name=\"onload\" value=\"true\" /></feature>",
                            "count": 1
                        }
                    ]
                }
            }
        }
    },
    "installed_plugins": {
        "cordova-plugin-uniquedeviceid": {
            "PACKAGE_NAME": "org.appclient.sample"
        }
    },
    "dependent_plugins": {},
    "modules": [
        {
            "file": "plugins/cordova-plugin-uniquedeviceid/www/uniqueid.js",
            "id": "cordova-plugin-uniquedeviceid.UniqueDeviceID",
            "pluginId": "cordova-plugin-uniquedeviceid",
            "merges": [
                "window.plugins.uniqueDeviceID"
            ]
        }
    ]
}